イタリア,Italy,country or place name
フランス,France,country or place name
メキシコ,Mexico,country or place name
カナダ,Canada,country or place name
タイ,Thailand,country or place name
ベトナム,Vietnam,country or place name
カンボジア,Cambodia,country or place name
インドネシア,Indonesia,country or place name
オーストリア,Austria,country or place name
スイス,Switzerland,country or place name
ドイツ,Germany,country or place name
スペイン,Spain,country or place name
チリ,Chile,country or place name
アルゼンチン,Argentine,country or place name
ブラジル,Brazil,country or place name
エジプト,Egypt,country or place name
サウジアラビア,Saudi Arabia,country or place name
イラン,Iran,country or place name
イラク,Iraq,country or place name
イスラエル,Israel,country or place name
パレスチナ,Palestine,country or place name
ロシア,Russia,country or place name
チベット,Tibet,country or place name
ネパール,Nepal,country or place name
インド,India,country or place name
パキスタン,Pakistan,country or place name
コスタリカ,Costa Rica,country or place name
キューバ,Cuba,country or place name
フィリピン,the Philippines,country or place name
ウルグアイ,Uruguay,country or place name
ベネズエラ,Venezuela,country or place name
ポルトガル,Portugal,country or place name
ギリシャ,Greek,country or place name
オランダ,Holland,country or place name
デンマーク,Denmark,country or place name
アイルランド,Ireland,country or place name
モンゴル,Mongol,country or place name
ナイジェリア,Nigeria,country or place name
タヒチ,Tahiti,country or place name
ケニア,Kenya,country or place name
タンザニア,Tanzania,country or place name
ビルマ,Burma,country or place name
シンガポール,Singapore,country or place name
ニュージランド,New Zealand,country or place name
トルコ,Turkey,country or place name
ハンガリー,Hungary,country or place name
サンフランシスコ,San Francisco,country or place name
ロス,Los Angeles,country or place name
サンタクルーズ,Santa Cruz,country or place name
シアトル,Seattle,country or place name
ボストン,Boston,country or place name
ハリウッド,Hollywood,country or place name
サンタバーバラ,Santa Barbara,country or place name
オレゴン,Oregon,country or place name
ミネソタ,Minnesota,country or place name
ジョージア,Georgia,country or place name
ルイジアナ,Louisiana,country or place name
テキサス,Texas,country or place name
モンタナ,Montana,country or place name
ニューメキシコ,New Mexico,country or place name
ローマ,Rome,country or place name
パリ,Paris,country or place name
ソウル,Seoul,country or place name
バンコック,Bangkok,country or place name
ブエノスアイレス,Buenos Aires,country or place name
カイロ,Cairo,country or place name
アテネ,Athens,country or place name
マドリード,Madrid,country or place name
ヒューストン,Houston,country or place name
クロワッサン,croissant,food or drink
アップルパイ,apple pie,food or drink
ハーブ,herb,food or drink
クリームチーズ,cream cheese,food or drink
ベーグル,bagel,food or drink
ミルクシェイク／ミルクセーキ,milk shake,food or drink
チーズ,cheese,food or drink
ミルク,milk,food or drink
バター,butter,food or drink
マーガリン,margarine,food or drink
マヨネーズ,mayonnaise,food or drink
ケチャップ,ketchup,food or drink
ピクルス,pickles,food or drink
タコス,tacos,food or drink
スパゲティ／スパゲッティ,spaghetti,food or drink
マカロニ,macaroni,food or drink
スープ,soup,food or drink
サラダ,salad,food or drink
クレープ,crepe,food or drink
ホットケーキ,pancake,food or drink
ブロッコリー,broccoli,food or drink
ソーセージ,sausage,food or drink
ハム,ham,food or drink
ステーキ,steak,food or drink
キャベツ,cabbage,food or drink
ピーマン,bell pepper(pimento),food or drink
カリフラワー,cauliflower,food or drink
ズッキーニ,zucchini,food or drink
メロン,melon,food or drink
ブルーベリー,blueberry,food or drink
マーマレード,marmalade,food or drink
ジャム,jam,food or drink
ピーナッツ,peanuts,food or drink
ピスタチオ,pistachio,food or drink
アーモンド,almond,food or drink
シナモン,cinnamon,food or drink
ヨーグルト,yogurt,food or drink
マフィン,muffin,food or drink
プリン, custard(pudding),food or drink
クッキー,cookie,food or drink
シャンパン,campaign,food or drink
ウイスキー／ウィスキー,whiskey,food or drink
ウオッカ／ウォッカ,vodka,food or drink
ブランデー,brandy,food or drink
ワイン,wine,food or drink
フライドポテト,French fries,food or drink
フライドチキン,fried chicken,food or drink
コールスロー,coleslaw,food or drink
ポテトサラダ,potato salad,food or drink
スモークサーモン,smoked salmon,food or drink
シャーベット,sorbet,food or drink
ドーナツ,donuts,food or drink
マッシュルーム,mushrooms (button),food or drink
オリーブ,olive,food or drink
マンゴー,mango,food or drink
アボカド,avocado,food or drink
パパイヤ,papaya,food or drink
バナナ,banana,food or drink
レモン,lemon,food or drink
カプチーノ,cappuccino,food or drink
カフェラテ,café latte,food or drink
スコーン,scone,food or drink
コロッケ,croquette,food or drink
オムレツ,omelet,food or drink
ホットドッグ,hotdog,food or drink
ローストビーフ,roast beef,food or drink
ネクタイ,necktie,clothing or household item
ワイシャツ,dressshirt (often white dress shirt),clothing or household item
スカーフ,scarf,clothing or household item
マフラー,muffler,clothing or household item
ジャケット,jacket,clothing or household item
スカート,skirt,clothing or household item
スボン,trousers(pants),clothing or household item
サンダル,sandals,clothing or household item
ハイヒール,high heels,clothing or household item
ブーツ,boots,clothing or household item
トレーナー,sweat shirt,clothing or household item
ネックレス,necklace,clothing or household item
イヤリング,ear ring,clothing or household item
ブレスレット,bracelet,clothing or household item
リング,ring(usually not wedding ring),clothing or household item
ブローチ,broach,clothing or household item
ブラウス,blouse,clothing or household item
ドレス,dress,clothing or household item
ワンピース,one piece,clothing or household item
スーツ,suits,clothing or household item
パンツ,pants,clothing or household item
ブラジャー,bra,clothing or household item
ハンドバッグ,handbag,clothing or household item
バックパック,backpack,clothing or household item
ベルト,belt,clothing or household item
レインコート,rain coat,clothing or household item
オーバー,over coat (winter coat),clothing or household item
タオル,towel,clothing or household item
カーペット,carpet,clothing or household item
クッション,cushion,clothing or household item
テーブルクロス,table cloth,clothing or household item
ナプキン,napkin,clothing or household item
フォーク,fork,clothing or household item
ナイフ,knife,clothing or household item
シャワーキャップ,shower cap,clothing or household item
レンジ,cooking stove,clothing or household item
スプーン,spoon,clothing or household item
オーブン,oven,clothing or household item
ベッド,bed,clothing or household item
シーツ,sheets,clothing or household item
ソファ,sofa,clothing or household item
シャワー,shower,clothing or household item
シャンプー,shampoo,clothing or household item
リンス,conditioner,clothing or household item
ローション,lotion,clothing or household item
コロン,cologne,clothing or household item
マスカラ,mascara,clothing or household item
アイシャドー,eye shadow,clothing or household item
マニキュア,manicure,clothing or household item
ドライヤー,dryer,computer or electric appliance
ヘアドライヤー,hair dryer,computer or electric appliance
ミキサー,mixer(blender),computer or electric appliance
トースター,toaster,computer or electric appliance
ラジオ,radio,computer or electric appliance
ランプ,lump,computer or electric appliance
iPad（アイパッド）,iPad,computer or electric appliance
iPod（アイポッド）,iPod,computer or electric appliance
スマホ（スマートフォン）,smart phone,computer or electric appliance
ステレオ,stereo,computer or electric appliance
スピーカー,speaker,computer or electric appliance
DVD（ディーブイディー）プレイヤー,DVD player,computer or electric appliance
バッテリー,battery,computer or electric appliance
ノートパソコン,laptop,computer or electric appliance
ヘッドホン,headphone,computer or electric appliance
イヤホン,earphone,computer or electric appliance
リモコン,remote control,computer or electric appliance
エアコン,air conditioning,computer or electric appliance
ヒーター / ストーブ,heater,computer or electric appliance
マウス,mouse,computer or electric appliance
スクロールする,to scroll,computer or electric appliance
ダウンロードする,to download,computer or electric appliance
クリックする,to click,computer or electric appliance
ネット,Internet,computer or electric appliance
メール,e-mail,computer or electric appliance
メルアド,e-mail address,computer or electric appliance
ホームページ,(website) homepage,computer or electric appliance
ロック,rock,music
クラシック,classic,music
ヒップホップ,hip-hop,music
レゲエ,reggae,music
ジャズ,jazz,music
ブルース,blues,music
フォークソング,folk song,music
カントリー,country,music
トランペット,trumpet,music
サクソフォーン（サックス）,saxophone,music
ピアノ,piano,music
チェロ,cello,music
バイオリン,violin,music
ギター,guitar,music
ベース,base,music
ドラム,drums,music
フルート,flute,music
ハープ,harp,music
ゴスペル,gospel,music
ハーモニカ,harmonica,music
アコーディオン,accordion,music
キーボード,key board,music
オペラ,opera,music
ソプラノ,soprano,music
コーラス,chorus,music
ウクレレ,ukulele,music
リサイタル,recital,music
コンサート,concert,music
CD（シーディー）,CD,music
MP３（エムピースリー）,MP3,music
iTunes（アイチューンズ）,iTunes,music
レコード,record (vinyl),music
レコーディング,recording,music
コンサートホール,concert hall,music
