いいこ（いい子）,good child,noun
いろ（色）,color,noun
おべんとう（お弁当）,boxed lunch,noun
かぶき（歌舞伎）,Kabuki; traditional Japanese theatrical art,noun
ギター,guitar,noun
きょねん（去年）,last year,noun
くすり（薬）,medicine,noun
くすりをのむ（薬を飲む）,to take medicine（～を）,う-verb
コンサート,concert,noun
こんど（今度）,near future,noun
さくぶん（作文）,essay; composition,noun
しけん（試験）,exam,noun
スキー,ski,noun
せんげつ（先月）,last month,noun
たんご（単語）,vocabulary,noun
ピアノ,piano,noun
ピザ,pizza,noun
びょうき（病気）,illness; sickness,noun
あおい（青い）,blue,い-adjective
あかい（赤い）,red,い-adjective
くろい（黒い）,black,い-adjective
さびしい（寂しい）,lonely,い-adjective
しろい（白い）,white,い-adjective
わかい（若い）,young,い-adjective
いじわる（意地悪）,mean spirited,な-adjective
おどる（踊る）,to dance,う-verb
おわる（終わる）,(something) ends（～が）,う-verb
にんきがある（人気がある）,to be popular,う-verb
はじまる（始まる）,(something) begins（～が）,う-verb
ひく（弾く）,to play (a string instrument or piano)（～を）,う-verb
もらう,to get (from somebody)（person に thing を）,う-verb
おぼえる（覚える）,to memorize（～を）,る-verb
でる（出る）,(1) to appear; to attend（～に）(2) to exit（～を）,る-verb
うんどうする（運動する）,to do physical exercises,irregular verb
さんぽする（散歩する）,to take a walk,irregular verb
～から,from...,adverb / expression
ぜひ（是非）,by all means,adverb / expression
ところで,by the way,adverb / expression
みんな,all,adverb / expression
もう,already,adverb / expression
one (small item),ひとつ（一つ）,number
two (small items),ふたつ（二つ）,number
three (small items),みっつ（三つ）,number
four (small items),よっつ（四つ）,number
five (small items),いつつ（五つ）,number
six (small items),むっつ（六つ）,number
seven (small items),ななつ（七つ）,number
eight (small items),やっつ（八つ）,number
nine (small items),ここのつ（九つ）,number
ten (small items),とお（十）,number
